{
  "response": [
    {
      "datetime": 1706561999,
      "filename": "lineage-20.0-20240129-UNOFFICIAL-suzu.zip",
      "id": "70e2ce067bf69e9ca0269a1bd4d315c566386bbe2ec41d60a3c0bdc3e057a117",
      "romtype": "unofficial",
      "size": 820940469,
      "url": "https://master.dl.sourceforge.net/project/loire-development/lineageos-20/suzu/lineage-20.0-20240129-UNOFFICIAL-suzu.zip?viasf=1",
      "version": "20.0"
    },
    {
      "datetime": 1685825999,
      "filename": "lineage-19.1-20230603-UNOFFICIAL-suzu.zip",
      "id": "30bd5762f644a50c837676210d87bc929f044738eefbc18937aa3f7e5fca6e86",
      "romtype": "unofficial",
      "size": 778028921,
      "url": "https://master.dl.sourceforge.net/project/loire-development/lineageos-19.1/suzu/lineage-19.1-20230603-UNOFFICIAL-suzu.zip?viasf=1",
      "version": "19.1"
    }
  ]
}
